
{
    "component_uis":[
        {
            "type":"class",
            "name":"ThreadExample",
            "package_name":"",
            "parent":"Application",
            "variables":[
                {
                    "variable_access":"public",
                    "variable_static":true,
                    "variable_type":"String",
                    "variable_name":"START_TEXT"
                },
                {
                    "variable_access":"public",
                    "variable_static":true,
                    "variable_type":"String",
                    "variable_name":"PAUSE_TEXT"
                },
                {
                    "variable_access":"private",
                    "variable_static":false,
                    "variable_type":"Stage",
                    "variable_name":"window"
                },
                {
                    "variable_access":"private",
                    "variable_static":false,
                    "variable_type":"BorderPane",
                    "variable_name":"appPane"
                },
                {
                    "variable_access":"private",
                    "variable_static":false,
                    "variable_type":"Button",
                    "variable_name":"startButton"
                },
                {
                    "variable_access":"private",
                    "variable_static":false,
                    "variable_type":"Button",
                    "variable_name":"pauseButton"
                },
                {
                    "variable_access":"private",
                    "variable_static":false,
                    "variable_type":"ScrollPane",
                    "variable_name":"scrollPane"
                },
                {
                    "variable_access":"private",
                    "variable_static":false,
                    "variable_type":"TextArea",
                    "variable_name":"textArea"
                },
                {
                    "variable_access":"private",
                    "variable_static":false,
                    "variable_type":"Thread",
                    "variable_name":"dateThread"
                }
            ],
            "methods":[
                {
                    "method_abstract":false,
                    "method_access":"public",
                    "method_static":false,
                    "method_return_type":"void",
                    "method_name":"start",
                    "method_arguments":[
                        {
                            "arg_type":"Stage"
                        }
                    ]
                },
                {
                    "method_abstract":false,
                    "method_access":"public",
                    "method_static":false,
                    "method_return_type":"void",
                    "method_name":"startWork",
                    "method_arguments":[
                    ]
                },
                {
                    "method_abstract":false,
                    "method_access":"public",
                    "method_static":false,
                    "method_return_type":"void",
                    "method_name":"pauseWork",
                    "method_arguments":[
                    ]
                },
                {
                    "method_abstract":false,
                    "method_access":"public",
                    "method_static":false,
                    "method_return_type":"boolean",
                    "method_name":"doWork",
                    "method_arguments":[
                    ]
                },
                {
                    "method_abstract":false,
                    "method_access":"public",
                    "method_static":false,
                    "method_return_type":"void",
                    "method_name":"appendText",
                    "method_arguments":[
                        {
                            "arg_type":"String"
                        }
                    ]
                },
                {
                    "method_abstract":false,
                    "method_access":"public",
                    "method_static":false,
                    "method_return_type":"void",
                    "method_name":"sleep",
                    "method_arguments":[
                        {
                            "arg_type":"int"
                        }
                    ]
                },
                {
                    "method_abstract":false,
                    "method_access":"public",
                    "method_static":false,
                    "method_return_type":"void",
                    "method_name":"initLayout",
                    "method_arguments":[
                    ]
                },
                {
                    "method_abstract":false,
                    "method_access":"public",
                    "method_static":false,
                    "method_return_type":"void",
                    "method_name":"initHanlders",
                    "method_arguments":[
                    ]
                },
                {
                    "method_abstract":false,
                    "method_access":"public",
                    "method_static":false,
                    "method_return_type":"void",
                    "method_name":"initWindow",
                    "method_arguments":[
                        {
                            "arg_type":"Stage"
                        }
                    ]
                },
                {
                    "method_abstract":false,
                    "method_access":"public",
                    "method_static":false,
                    "method_return_type":"void",
                    "method_name":"initThreads",
                    "method_arguments":[
                    ]
                },
                {
                    "method_abstract":false,
                    "method_access":"public",
                    "method_static":true,
                    "method_return_type":"void",
                    "method_name":"main",
                    "method_arguments":[
                        {
                            "arg_type":"String[]"
                        }
                    ]
                }
            ],
            "translate_X":"500.0",
            "translate_Y":"100.0",
            "connectors":[
                {
                    "connector_type":"parent connector",
                    "anchors":[
                        {
                            "anchor_x":"500.0",
                            "anchor_y":"50.0"
                        },
                        {
                            "anchor_x":"500.0",
                            "anchor_y":"100.0"
                        }
                    ]
                },
                {
                    "connector_type":"aggregation connector",
                    "anchors":[
                        {
                            "anchor_x":"650.0",
                            "anchor_y":"150.0"
                        },
                        {
                            "anchor_x":"700.0",
                            "anchor_y":"150.0"
                        },
                        {
                            "anchor_x":"700.0",
                            "anchor_y":"100.0"
                        },
                        {
                            "anchor_x":"800.0",
                            "anchor_y":"100.0"
                        }
                    ]
                }
            ]
        },
        {
            "type":"interface",
            "name":"PauseHanlder",
            "package_name":"",
            "parent":"EventHandler",
            "variables":[
                {
                    "variable_access":"public",
                    "variable_static":true,
                    "variable_type":"ThreadExample",
                    "variable_name":"app"
                }
            ],
            "methods":[
                {
                    "method_abstract":false,
                    "method_access":"public",
                    "method_static":false,
                    "method_return_type":"",
                    "method_name":"PauseHanlder",
                    "method_arguments":[
                        {
                            "arg_type":"ThreadExample"
                        }
                    ]
                },
                {
                    "method_abstract":true,
                    "method_access":"public",
                    "method_static":false,
                    "method_return_type":"void",
                    "method_name":"handle",
                    "method_arguments":[
                        {
                            "arg_type":"Event"
                        }
                    ]
                }
            ],
            "translate_X":"650.0",
            "translate_Y":"150.0",
            "connectors":[
            ]
        },
        {
            "type":"class",
            "name":"StartHanlder",
            "package_name":"",
            "parent":"EventHandler",
            "variables":[
                {
                    "variable_access":"private",
                    "variable_static":false,
                    "variable_type":"ThreadExample",
                    "variable_name":"app"
                }
            ],
            "methods":[
                {
                    "method_abstract":false,
                    "method_access":"public",
                    "method_static":false,
                    "method_return_type":"",
                    "method_name":"StartHanlder",
                    "method_arguments":[
                        {
                            "arg_type":"ThreadExample"
                        }
                    ]
                },
                {
                    "method_abstract":false,
                    "method_access":"public",
                    "method_static":false,
                    "method_return_type":"void",
                    "method_name":"handle",
                    "method_arguments":[
                        {
                            "arg_type":"Event"
                        }
                    ]
                }
            ],
            "translate_X":"650.0",
            "translate_Y":"300.0",
            "connectors":[
            ]
        },
        {
            "type":"class",
            "name":"CounterTask",
            "package_name":"",
            "parent":"Task",
            "variables":[
                {
                    "variable_access":"private",
                    "variable_static":false,
                    "variable_type":"ThreadExample",
                    "variable_name":"app"
                },
                {
                    "variable_access":"private",
                    "variable_static":false,
                    "variable_type":"int",
                    "variable_name":"counter"
                }
            ],
            "methods":[
                {
                    "method_abstract":false,
                    "method_access":"public",
                    "method_static":false,
                    "method_return_type":"",
                    "method_name":"CounterTask",
                    "method_arguments":[
                        {
                            "arg_type":"ThreadExample"
                        }
                    ]
                },
                {
                    "method_abstract":false,
                    "method_access":"protected",
                    "method_static":false,
                    "method_return_type":"void",
                    "method_name":"call",
                    "method_arguments":[
                    ]
                }
            ],
            "translate_X":"100.0",
            "translate_Y":"150.0",
            "connectors":[
            ]
        },
        {
            "type":"class",
            "name":"DateTask",
            "package_name":"",
            "parent":"Task",
            "variables":[
                {
                    "variable_access":"private",
                    "variable_static":false,
                    "variable_type":"ThreadExample",
                    "variable_name":"app"
                },
                {
                    "variable_access":"private",
                    "variable_static":false,
                    "variable_type":"Date",
                    "variable_name":"now"
                }
            ],
            "methods":[
                {
                    "method_abstract":false,
                    "method_access":"public",
                    "method_static":false,
                    "method_return_type":"",
                    "method_name":"DateTask",
                    "method_arguments":[
                        {
                            "arg_type":"ThreadExample"
                        }
                    ]
                },
                {
                    "method_abstract":false,
                    "method_access":"protected",
                    "method_static":false,
                    "method_return_type":"void",
                    "method_name":"call",
                    "method_arguments":[
                    ]
                }
            ],
            "translate_X":"100.0",
            "translate_Y":"350.0",
            "connectors":[
            ]
        }
    ]
}